711,ICN,St.Gallen-Genf Flughafen,[SG;W;WI;ZFH;ZUE;AA;OL;BN;FR;LS;GE;GEAP]
713,ICN,St.Gallen-Genf Flughafen,[SG;W;WI;ZFH;ZUE;AA;OL;BN;FR;LS;GE;GEAP]
715,ICN,St.Gallen-Genf Flughafen,[SG;W;WI;ZFH;ZUE;AA;OL;BN;FR;LS;GE;GEAP]
720,ICN,St.Gallen-Genf Flughafen,[SG;W;WI;ZFH;ZUE;AA;OL;BN;FR;LS;GE;GEAP]
854

